Kiran Favre - Exploring Music Tastes with Machine Learning
…
# Fit the workflow on our predefined folds and hyperparameters
fit_knn_cv <- wf_knn_tuned |> 
  tune_grid(
    cv_folds, #tuning based on these folds 
    grid = data.frame(neighbors = c(1,5, seq(10,100,10)))
    
  )

# Check the performance with collect_metrics()
fit_knn_cv |>  collect_metrics()

# A tibble: 24 × 7
   neighbors .metric  .estimator  mean     n std_err .config              
       <dbl> <chr>    <chr>      <dbl> <int>   <dbl> <chr>                
 1         1 accuracy binary     0.633     5  0.0342 Preprocessor1_Model01
 2         1 roc_auc  binary     0.633     5  0.0400 Preprocessor1_Model01
 3         5 accuracy binary     0.658     5  0.0356 Preprocessor1_Model02
 4         5 roc_auc  binary     0.708     5  0.0462 Preprocessor1_Model02
 5        10 accuracy binary     0.667     5  0.0299 Preprocessor1_Model03
 6        10 roc_auc  binary     0.731     5  0.0374 Preprocessor1_Model03
 7        20 accuracy binary     0.667     5  0.0182 Preprocessor1_Model04
 8        20 roc_auc  binary     0.744     5  0.0229 Preprocessor1_Model04
 9        30 accuracy binary     0.677     5  0.0173 Preprocessor1_Model05
10        30 roc_auc  binary     0.750     5  0.0160 Preprocessor1_Model05
# ℹ 14 more rows
…
# Fitting our final workflow 
final_knn_fit <- final_knn_wf |> 
  fit(data = audio_train)

music_pred <- final_knn_fit |> 
  predict(new_data = audio_test)

# Write over 'final_fit' with this last_fit() approach 
final_knn_fit <- final_knn_wf |> 
  last_fit(audio_split)

final_knn_fit$.predictions

[[1]]
# A tibble: 159 × 6
   .pred_Erica .pred_Kiran  .row .pred_class listener_id .config             
         <dbl>       <dbl> <int> <fct>       <fct>       <chr>               
 1       0.266       0.734     1 Kiran       Kiran       Preprocessor1_Model1
 2       0.529       0.471     2 Erica       Kiran       Preprocessor1_Model1
 3       0.215       0.785     5 Kiran       Kiran       Preprocessor1_Model1
 4       0.533       0.467    10 Erica       Kiran       Preprocessor1_Model1
 5       0.392       0.608    11 Kiran       Kiran       Preprocessor1_Model1
 6       0.594       0.406    30 Erica       Kiran       Preprocessor1_Model1
 7       0.366       0.634    31 Kiran       Kiran       Preprocessor1_Model1
 8       0.699       0.301    34 Erica       Kiran       Preprocessor1_Model1
 9       0.416       0.584    35 Kiran       Kiran       Preprocessor1_Model1
10       0.401       0.599    41 Kiran       Kiran       Preprocessor1_Model1
# ℹ 149 more rows
…
dec_tree_grid <- grid_regular(cost_complexity(),
                              tree_depth(),
                              min_n(),
                              levels = 4) 

dec_tree_grid 

# A tibble: 64 × 3
   cost_complexity tree_depth min_n
             <dbl>      <int> <int>
 1    0.0000000001          1     2
 2    0.0000001             1     2
 3    0.0001                1     2
 4    0.1                   1     2
 5    0.0000000001          5     2
 6    0.0000001             5     2
 7    0.0001                5     2
 8    0.1                   5     2
 9    0.0000000001         10     2
10    0.0000001            10     2
# ℹ 54 more rows
…
# Finalizing our model 
final_dec_tree <- finalize_model(dec_tree_spec_tune,
                                 select_best(dec_tree_rs))

final_dec_tree_fit <- last_fit(final_dec_tree,
                               as.factor(listener_id) ~.,
                               audio_split)

# Outputting Metrics 
final_dec_tree_fit$.predictions

[[1]]
# A tibble: 159 × 6
   .pred_Erica .pred_Kiran  .row .pred_class `as.factor(listener_id)` .config   
         <dbl>       <dbl> <int> <fct>       <fct>                    <chr>     
 1      0.114       0.886      1 Kiran       Kiran                    Preproces…
 2      0.875       0.125      2 Erica       Kiran                    Preproces…
 3      0.667       0.333      5 Erica       Kiran                    Preproces…
 4      0.0732      0.927     10 Kiran       Kiran                    Preproces…
 5      0.0732      0.927     11 Kiran       Kiran                    Preproces…
 6      0.0357      0.964     30 Kiran       Kiran                    Preproces…
 7      0.455       0.545     31 Kiran       Kiran                    Preproces…
 8      0.952       0.0476    34 Erica       Kiran                    Preproces…
 9      0.114       0.886     35 Kiran       Kiran                    Preproces…
10      0.778       0.222     41 Erica       Kiran                    Preproces…
# ℹ 149 more rows
…
rand_forest_res <- 
  rand_forest_workflow %>%  
  tune_grid(validation_set,
            grid = 25,
            control = control_grid(save_pred = TRUE),
            metrics = metric_set(accuracy))

i Creating pre-processing data to finalize unknown parameter: mtry

## model metrics
rand_forest_res %>% collect_metrics()

# A tibble: 25 × 8
    mtry min_n .metric  .estimator  mean     n std_err .config              
   <int> <int> <chr>    <chr>      <dbl> <int>   <dbl> <chr>                
 1     9    30 accuracy binary     0.734     1      NA Preprocessor1_Model01
 2     3    35 accuracy binary     0.748     1      NA Preprocessor1_Model02
 3     4    19 accuracy binary     0.748     1      NA Preprocessor1_Model03
 4     5    14 accuracy binary     0.741     1      NA Preprocessor1_Model04
 5     7     7 accuracy binary     0.762     1      NA Preprocessor1_Model05
 6     9    28 accuracy binary     0.755     1      NA Preprocessor1_Model06
 7     3     9 accuracy binary     0.734     1      NA Preprocessor1_Model07
 8     8    18 accuracy binary     0.741     1      NA Preprocessor1_Model08
 9    12    31 accuracy binary     0.762     1      NA Preprocessor1_Model09
10    11     3 accuracy binary     0.741     1      NA Preprocessor1_Model10
# ℹ 15 more rows
…
# choose best random forest model 
best_rand_forest <- select_best(rand_forest_res, "accuracy")
best_rand_forest

# A tibble: 1 × 3
   mtry min_n .config              
  <int> <int> <chr>                
1    14    38 Preprocessor1_Model19

# output preds
rand_forest_res %>%   
  collect_predictions()

# A tibble: 3,575 × 7
   id         .pred_class  .row  mtry min_n listener_id .config              
   <chr>      <fct>       <int> <int> <int> <fct>       <chr>                
 1 validation Kiran           5     9    30 Kiran       Preprocessor1_Model01
 2 validation Erica           6     9    30 Erica       Preprocessor1_Model01
 3 validation Kiran           7     9    30 Kiran       Preprocessor1_Model01
 4 validation Erica          13     9    30 Kiran       Preprocessor1_Model01
 5 validation Kiran          14     9    30 Kiran       Preprocessor1_Model01
 6 validation Erica          21     9    30 Erica       Preprocessor1_Model01
 7 validation Kiran          24     9    30 Erica       Preprocessor1_Model01
 8 validation Kiran          27     9    30 Kiran       Preprocessor1_Model01
 9 validation Erica          33     9    30 Erica       Preprocessor1_Model01
10 validation Kiran          35     9    30 Kiran       Preprocessor1_Model01
# ℹ 3,565 more rows
…
