Kiran Favre - Predicting the Age of Abalone with Regularized Regression Models
…
abalone_data_split

<Training/Testing/Total>
<2922/1255/4177>

abalone_data_train <-  training(abalone_data_split) #takes training portion from split data
abalone_data_test  <-  testing(abalone_data_split) #takes test portion from split data 
#essentially have two new data sets

abalone_data_train

# A tibble: 2,922 × 10
    ...1 Sex   Length Diameter Height Whole_weight Shucked_weight Viscera_weight
   <dbl> <chr>  <dbl>    <dbl>  <dbl>        <dbl>          <dbl>          <dbl>
 1     2 M      0.35     0.265  0.09         0.226         0.0995         0.0485
 2     5 I      0.33     0.255  0.08         0.205         0.0895         0.0395
 3     6 I      0.425    0.3    0.095        0.352         0.141          0.0775
 4    17 I      0.355    0.28   0.085        0.290         0.095          0.0395
 5    36 M      0.465    0.355  0.105        0.480         0.227          0.124 
 6    38 F      0.45     0.355  0.105        0.522         0.237          0.116 
 7    43 I      0.24     0.175  0.045        0.07          0.0315         0.0235
 8    44 I      0.205    0.15   0.055        0.042         0.0255         0.015 
 9    45 I      0.21     0.15   0.05         0.042         0.0175         0.0125
10    46 I      0.39     0.295  0.095        0.203         0.0875         0.045 
# ℹ 2,912 more rows
# ℹ 2 more variables: Shell_weight <dbl>, Rings <dbl>
…
