Kiran Favre - Using Machine Learning for Ocean Chemistry Prediction
…
Warning in predict.lm(object = object$fit, newdata = new_data, type =
"response"): prediction from rank-deficient fit; attr(*, "non-estim") has
doubtful cases

Show code

test_data_predictions

# A tibble: 485 × 2
      id   DIC
   <dbl> <dbl>
 1  1455 2173.
 2  1456 2194.
 3  1457 2325.
 4  1458 1993.
 5  1459 2147.
 6  1460 2036.
 7  1461 2159.
 8  1462 2196.
 9  1463 2270.
10  1464 2314.
# ℹ 475 more rows
…
